<svg width="7" height="13" viewBox="0 0 7 13" fill="none" xmlns="http://www.w3.org/2000/svg">
<path d="M1.49463 11.2836L5.5153 7.26296C5.99013 6.78812 5.99013 6.01113 5.5153 5.53629L1.49463 1.51562" stroke="#101018" stroke-width="1.5" stroke-miterlimit="10" stroke-linecap="round" stroke-linejoin="round"/>
</svg>
